sim/wave_int64_max_div_neg2.vcd
$version Generated by VerilatedVcd $end
$date Wed Jun  3 16:16:40 2026
 $end
$timescale   1ps $end

 $scope module TOP $end
  $var wire  1 I! busy_o $end
  $var wire  1 8! clk $end
  $var wire  1 G! div_by_zero_o $end
  $var wire 64 <! dividend_i [63:0] $end
  $var wire 64 >! divisor_i [63:0] $end
  $var wire  1 H! overflow_o $end
  $var wire 64 C! quotient_o [63:0] $end
  $var wire  1 B! ready_i $end
  $var wire  1 ;! ready_o $end
  $var wire 64 E! remainder_o [63:0] $end
  $var wire  1 9! rst_n $end
  $var wire  1 @! signed_op_i $end
  $var wire  1 :! valid_i $end
  $var wire  1 A! valid_o $end
  $scope module div_srt4_pkg $end
   $var wire 32 Q! ITER_CNT_BITS [31:0] $end
   $var wire 32 N! LZC_BITS [31:0] $end
   $var wire 32 P! MAX_ITER [31:0] $end
   $var wire 32 M! PR_WIDTH [31:0] $end
   $var wire 32 O! QDS_DIV_BITS [31:0] $end
   $var wire 32 N! QDS_PR_BITS [31:0] $end
   $var wire 32 L! Q_WIDTH [31:0] $end
   $var wire 32 L! WIDTH [31:0] $end
  $upscope $end
  $scope module div_srt4_top $end
   $var wire 64 + abs_dividend [63:0] $end
   $var wire 64 - abs_divisor [63:0] $end
   $var wire  1 I! busy_o $end
   $var wire  1 8! clk $end
   $var wire  3 : d_hat [2:0] $end
   $var wire  1 I div_by_zero_next $end
   $var wire  1 G! div_by_zero_o $end
   $var wire  1 H div_by_zero_q $end
   $var wire 64 <! dividend_i [63:0] $end
   $var wire 64 $ dividend_q [63:0] $end
   $var wire  1 ) dividend_sign $end
   $var wire 64 >! divisor_i [63:0] $end
   $var wire 64 & divisor_q [63:0] $end
   $var wire  1 * divisor_sign $end
   $var wire  1 7 dp_corr_step $end
   $var wire  1 8 dp_done $end
   $var wire  1 6 dp_iter_step $end
   $var wire  1 5 dp_prep_step $end
   $var wire  1 2 is_a_lt_d $end
   $var wire  1 1 is_a_zero $end
   $var wire  1 3 is_d_one $end
   $var wire  1 / is_div_zero $end
   $var wire  1 0 is_overflow $end
   $var wire  1 K overflow_next $end
   $var wire  1 H! overflow_o $end
   $var wire  1 J overflow_q $end
   $var wire  7 9 pr_est [6:0] $end
   $var wire  3 ; q_digit [2:0] $end
   $var wire 64 < q_raw [63:0] $end
   $var wire 64 C! quotient_o [63:0] $end
   $var wire 64 B quotient_o_next [63:0] $end
   $var wire 64 @ quotient_o_q [63:0] $end
   $var wire 64 > r_raw [63:0] $end
   $var wire  1 B! ready_i $end
   $var wire  1 ;! ready_o $end
   $var wire 64 E! remainder_o [63:0] $end
   $var wire 64 F remainder_o_next [63:0] $end
   $var wire 64 D remainder_o_q [63:0] $end
   $var wire  1 9! rst_n $end
   $var wire  1 4 short_circuit $end
   $var wire  1 @! signed_op_i $end
   $var wire  1 ( signed_op_q $end
   $var wire  3 J! state_next [2:0] $end
   $var wire  3 # state_q [2:0] $end
   $var wire  1 :! valid_i $end
   $var wire  1 A! valid_o $end
   $var wire  1 K! valid_o_next $end
   $var wire  1 L valid_o_q $end
   $scope module u_datapath $end
    $var wire 64 q QM_next [63:0] $end
    $var wire 64 o QM_q [63:0] $end
    $var wire 64 m Q_next [63:0] $end
    $var wire 64 k Q_q [63:0] $end
    $var wire 64 R a_norm_calc [63:0] $end
    $var wire 64 V abs_a_q [63:0] $end
    $var wire 64 X abs_d_q [63:0] $end
    $var wire 64 + abs_dividend_i [63:0] $end
    $var wire 64 - abs_divisor_i [63:0] $end
    $var wire 68 ,! carry_raw [67:0] $end
    $var wire  1 8! clk $end
    $var wire  1 7 corr_step $end
    $var wire  3 : d_hat_o [2:0] $end
    $var wire 68 { d_neg_1x [67:0] $end
    $var wire 68 ~ d_neg_2x [67:0] $end
    $var wire 64 T d_norm_calc [63:0] $end
    $var wire 64 Z d_norm_q [63:0] $end
    $var wire 68 u d_pos_1x [67:0] $end
    $var wire 68 x d_pos_2x [67:0] $end
    $var wire  1 8 done_o $end
    $var wire  6 t iter_cnt_next [5:0] $end
    $var wire  6 s iter_cnt_q [5:0] $end
    $var wire  1 6 iter_step $end
    $var wire  7 O k_calc [6:0] $end
    $var wire  7 M lzc_a [6:0] $end
    $var wire  7 N lzc_d [6:0] $end
    $var wire  7 ^ lzc_d_q [6:0] $end
    $var wire 68 #! mult [67:0] $end
    $var wire  7 P n_calc [6:0] $end
    $var wire  7 \ n_q [6:0] $end
    $var wire 68 )! pr_4x_carry [67:0] $end
    $var wire 68 &! pr_4x_sum [67:0] $end
    $var wire 68 h pr_carry_next [67:0] $end
    $var wire 68 b pr_carry_q [67:0] $end
    $var wire 68 3! pr_corrected [67:0] $end
    $var wire  7 9 pr_est_o [6:0] $end
    $var wire 68 /! pr_full_q [67:0] $end
    $var wire  1 2! pr_negative $end
    $var wire 68 e pr_sum_next [67:0] $end
    $var wire 68 _ pr_sum_q [67:0] $end
    $var wire  1 5 prep_step $end
    $var wire 64 6! q_corrected [63:0] $end
    $var wire  3 ; q_digit_i [2:0] $end
    $var wire 64 < q_int [63:0] $end
    $var wire 64 < quotient_o [63:0] $end
    $var wire 64 > r_calc [63:0] $end
    $var wire 64 > remainder_o [63:0] $end
    $var wire  1 9! rst_n $end
    $var wire  7 Q shift_calc [6:0] $end
    $var wire  7 ] shift_q [6:0] $end
   $upscope $end
   $scope module u_qds $end
    $var wire  3 : d_hat_i [2:0] $end
    $var wire  7 9 pr_est_i [6:0] $end
    $var wire  3 ; q_digit_o [2:0] $end
   $upscope $end
  $upscope $end
 $upscope $end
$enddefinitions $end


#1590
b000 #
b0111111111111111111111111111111111111111111111111111111111111111 $
b0000000000000000000000000000000000000000000000000000000000000010 &
1(
0)
0*
b0111111111111111111111111111111111111111111111111111111111111111 +
b0000000000000000000000000000000000000000000000000000000000000010 -
0/
00
01
02
03
04
05
06
07
08
b0000000 9
b000 :
b000 ;
b0011111111111111111111111111111111111111111111111111111111111111 <
b0000000000000000000000000000000000000000000000000000000000000001 >
b0011111111111111111111111111111111111111111111111111111111111111 @
b0011111111111111111111111111111111111111111111111111111111111111 B
b0000000000000000000000000000000000000000000000000000000000000001 D
b0000000000000000000000000000000000000000000000000000000000000001 F
0H
0I
0J
0K
0L
b0000001 M
b0111110 N
b0111101 O
b0100000 P
b0000001 Q
b1111111111111111111111111111111111111111111111111111111111111110 R
b1000000000000000000000000000000000000000000000000000000000000000 T
b0111111111111111111111111111111111111111111111111111111111111111 V
b0000000000000000000000000000000000000000000000000000000000000010 X
b1000000000000000000000000000000000000000000000000000000000000000 Z
b0100000 \
b0000001 ]
b0111110 ^
b11000000000000000000000000000000000000000000000000000000000000000000 _
b01000000000000000000000000000000000000000000000000000000000000000000 b
b00000000000000000000000000000000000000000000000000000000000000000000 e
b00000000000000000000000000000000000000000000000000000000000000000000 h
b0111111111111111111111111111111111111111111111111111111111111111 k
b1111111111111111111111111111111111111111111111111111111111111100 m
b0111111111111111111111111111111111111111111111111111111111111110 o
b1111111111111111111111111111111111111111111111111111111111111011 q
b100000 s
b100001 t
b00100000000000000000000000000000000000000000000000000000000000000000 u
b01000000000000000000000000000000000000000000000000000000000000000000 x
b11100000000000000000000000000000000000000000000000000000000000000000 {
b11000000000000000000000000000000000000000000000000000000000000000000 ~
b00000000000000000000000000000000000000000000000000000000000000000000 #!
b00000000000000000000000000000000000000000000000000000000000000000000 &!
b00000000000000000000000000000000000000000000000000000000000000000000 )!
b00000000000000000000000000000000000000000000000000000000000000000000 ,!
b00000000000000000000000000000000000000000000000000000000000000000000 /!
02!
b00000000000000000000000000000000000000000000000000000000000000000000 3!
b0111111111111111111111111111111111111111111111111111111111111111 6!
08!
19!
1:!
1;!
b0111111111111111111111111111111111111111111111111111111111111111 <!
b1111111111111111111111111111111111111111111111111111111111111110 >!
1@!
0A!
0B!
b0011111111111111111111111111111111111111111111111111111111111111 C!
b0000000000000000000000000000000000000000000000000000000000000001 E!
0G!
0H!
0I!
b001 J!
0K!
b00000000000000000000000001000000 L!
b00000000000000000000000001000100 M!
b00000000000000000000000000000111 N!
b00000000000000000000000000000011 O!
b00000000000000000000000000100000 P!
b00000000000000000000000000000110 Q!
#1595
b001 #
b1111111111111111111111111111111111111111111111111111111111111110 &
1*
15
18!
0;!
1I!
b010 J!
#1600
08!
0:!
#1605
b010 #
05
16
b0001111 9
b010 ;
b0000000000000000000000000000000000000000000000000000000000000000 <
b0000000000000000000000000000000000000000000000000000000000000000 >
b00001111111111111111111111111111111111111111111111111111111111111110 _
b00000000000000000000000000000000000000000000000000000000000000000000 b
b11111111111111111111111111111111111111111111111111111111111111111000 e
b0000000000000000000000000000000000000000000000000000000000000000 k
b0000000000000000000000000000000000000000000000000000000000000010 m
b0000000000000000000000000000000000000000000000000000000000000000 o
b0000000000000000000000000000000000000000000000000000000000000001 q
b000000 s
b000001 t
b11000000000000000000000000000000000000000000000000000000000000000000 #!
b00111111111111111111111111111111111111111111111111111111111111111000 &!
b0000000000000000000000000000000000000000000000000000000000000000 6!
18!
#1610
08!
#1615
b1111111 9
b000 ;
b0000000000000000000000000000000000000000000000000000000000000001 <
b11111111111111111111111111111111111111111111111111111111111111111000 _
b11111111111111111111111111111111111111111111111111111111111111100000 e
b0000000000000000000000000000000000000000000000000000000000000010 k
b0000000000000000000000000000000000000000000000000000000000001000 m
b0000000000000000000000000000000000000000000000000000000000000001 o
b0000000000000000000000000000000000000000000000000000000000000111 q
b000001 s
b000010 t
b00000000000000000000000000000000000000000000000000000000000000000000 #!
b11111111111111111111111111111111111111111111111111111111111111100000 &!
b0000000000000000000000000000000000000000000000000000000000000010 6!
18!
#1620
08!
#1625
b0000000000000000000000000000000000000000000000000000000000000100 <
b11111111111111111111111111111111111111111111111111111111111111100000 _
b11111111111111111111111111111111111111111111111111111111111110000000 e
b0000000000000000000000000000000000000000000000000000000000001000 k
b0000000000000000000000000000000000000000000000000000000000100000 m
b0000000000000000000000000000000000000000000000000000000000000111 o
b0000000000000000000000000000000000000000000000000000000000011111 q
b000010 s
b000011 t
b11111111111111111111111111111111111111111111111111111111111110000000 &!
b0000000000000000000000000000000000000000000000000000000000001000 6!
18!
#1630
08!
#1635
b0000000000000000000000000000000000000000000000000000000000010000 <
b11111111111111111111111111111111111111111111111111111111111110000000 _
b11111111111111111111111111111111111111111111111111111111111000000000 e
b0000000000000000000000000000000000000000000000000000000000100000 k
b0000000000000000000000000000000000000000000000000000000010000000 m
b0000000000000000000000000000000000000000000000000000000000011111 o
b0000000000000000000000000000000000000000000000000000000001111111 q
b000011 s
b000100 t
b11111111111111111111111111111111111111111111111111111111111000000000 &!
b0000000000000000000000000000000000000000000000000000000000100000 6!
18!
#1640
08!
#1645
b0000000000000000000000000000000000000000000000000000000001000000 <
b11111111111111111111111111111111111111111111111111111111111000000000 _
b11111111111111111111111111111111111111111111111111111111100000000000 e
b0000000000000000000000000000000000000000000000000000000010000000 k
b0000000000000000000000000000000000000000000000000000001000000000 m
b0000000000000000000000000000000000000000000000000000000001111111 o
b0000000000000000000000000000000000000000000000000000000111111111 q
b000100 s
b000101 t
b11111111111111111111111111111111111111111111111111111111100000000000 &!
b0000000000000000000000000000000000000000000000000000000010000000 6!
18!
#1650
08!
#1655
b0000000000000000000000000000000000000000000000000000000100000000 <
b11111111111111111111111111111111111111111111111111111111100000000000 _
b11111111111111111111111111111111111111111111111111111110000000000000 e
b0000000000000000000000000000000000000000000000000000001000000000 k
b0000000000000000000000000000000000000000000000000000100000000000 m
b0000000000000000000000000000000000000000000000000000000111111111 o
b0000000000000000000000000000000000000000000000000000011111111111 q
b000101 s
b000110 t
b11111111111111111111111111111111111111111111111111111110000000000000 &!
b0000000000000000000000000000000000000000000000000000001000000000 6!
18!
#1660
08!
#1665
b0000000000000000000000000000000000000000000000000000010000000000 <
b11111111111111111111111111111111111111111111111111111110000000000000 _
b11111111111111111111111111111111111111111111111111111000000000000000 e
b0000000000000000000000000000000000000000000000000000100000000000 k
b0000000000000000000000000000000000000000000000000010000000000000 m
b0000000000000000000000000000000000000000000000000000011111111111 o
b0000000000000000000000000000000000000000000000000001111111111111 q
b000110 s
b000111 t
b11111111111111111111111111111111111111111111111111111000000000000000 &!
b0000000000000000000000000000000000000000000000000000100000000000 6!
18!
#1670
08!
#1675
b0000000000000000000000000000000000000000000000000001000000000000 <
b11111111111111111111111111111111111111111111111111111000000000000000 _
b11111111111111111111111111111111111111111111111111100000000000000000 e
b0000000000000000000000000000000000000000000000000010000000000000 k
b0000000000000000000000000000000000000000000000001000000000000000 m
b0000000000000000000000000000000000000000000000000001111111111111 o
b0000000000000000000000000000000000000000000000000111111111111111 q
b000111 s
b001000 t
b11111111111111111111111111111111111111111111111111100000000000000000 &!
b0000000000000000000000000000000000000000000000000010000000000000 6!
18!
#1680
08!
#1685
b0000000000000000000000000000000000000000000000000100000000000000 <
b11111111111111111111111111111111111111111111111111100000000000000000 _
b11111111111111111111111111111111111111111111111110000000000000000000 e
b0000000000000000000000000000000000000000000000001000000000000000 k
b0000000000000000000000000000000000000000000000100000000000000000 m
b0000000000000000000000000000000000000000000000000111111111111111 o
b0000000000000000000000000000000000000000000000011111111111111111 q
b001000 s
b001001 t
b11111111111111111111111111111111111111111111111110000000000000000000 &!
b0000000000000000000000000000000000000000000000001000000000000000 6!
18!
#1690
08!
#1695
b0000000000000000000000000000000000000000000000010000000000000000 <
b11111111111111111111111111111111111111111111111110000000000000000000 _
b11111111111111111111111111111111111111111111111000000000000000000000 e
b0000000000000000000000000000000000000000000000100000000000000000 k
b0000000000000000000000000000000000000000000010000000000000000000 m
b0000000000000000000000000000000000000000000000011111111111111111 o
b0000000000000000000000000000000000000000000001111111111111111111 q
b001001 s
b001010 t
b11111111111111111111111111111111111111111111111000000000000000000000 &!
b0000000000000000000000000000000000000000000000100000000000000000 6!
18!
#1700
08!
#1705
b0000000000000000000000000000000000000000000001000000000000000000 <
b11111111111111111111111111111111111111111111111000000000000000000000 _
b11111111111111111111111111111111111111111111100000000000000000000000 e
b0000000000000000000000000000000000000000000010000000000000000000 k
b0000000000000000000000000000000000000000001000000000000000000000 m
b0000000000000000000000000000000000000000000001111111111111111111 o
b0000000000000000000000000000000000000000000111111111111111111111 q
b001010 s
b001011 t
b11111111111111111111111111111111111111111111100000000000000000000000 &!
b0000000000000000000000000000000000000000000010000000000000000000 6!
18!
#1710
08!
#1715
b0000000000000000000000000000000000000000000100000000000000000000 <
b11111111111111111111111111111111111111111111100000000000000000000000 _
b11111111111111111111111111111111111111111110000000000000000000000000 e
b0000000000000000000000000000000000000000001000000000000000000000 k
b0000000000000000000000000000000000000000100000000000000000000000 m
b0000000000000000000000000000000000000000000111111111111111111111 o
b0000000000000000000000000000000000000000011111111111111111111111 q
b001011 s
b001100 t
b11111111111111111111111111111111111111111110000000000000000000000000 &!
b0000000000000000000000000000000000000000001000000000000000000000 6!
18!
#1720
08!
#1725
b0000000000000000000000000000000000000000010000000000000000000000 <
b11111111111111111111111111111111111111111110000000000000000000000000 _
b11111111111111111111111111111111111111111000000000000000000000000000 e
b0000000000000000000000000000000000000000100000000000000000000000 k
b0000000000000000000000000000000000000010000000000000000000000000 m
b0000000000000000000000000000000000000000011111111111111111111111 o
b0000000000000000000000000000000000000001111111111111111111111111 q
b001100 s
b001101 t
b11111111111111111111111111111111111111111000000000000000000000000000 &!
b0000000000000000000000000000000000000000100000000000000000000000 6!
18!
#1730
08!
#1735
b0000000000000000000000000000000000000001000000000000000000000000 <
b11111111111111111111111111111111111111111000000000000000000000000000 _
b11111111111111111111111111111111111111100000000000000000000000000000 e
b0000000000000000000000000000000000000010000000000000000000000000 k
b0000000000000000000000000000000000001000000000000000000000000000 m
b0000000000000000000000000000000000000001111111111111111111111111 o
b0000000000000000000000000000000000000111111111111111111111111111 q
b001101 s
b001110 t
b11111111111111111111111111111111111111100000000000000000000000000000 &!
b0000000000000000000000000000000000000010000000000000000000000000 6!
18!
#1740
08!
#1745
b0000000000000000000000000000000000000100000000000000000000000000 <
b11111111111111111111111111111111111111100000000000000000000000000000 _
b11111111111111111111111111111111111110000000000000000000000000000000 e
b0000000000000000000000000000000000001000000000000000000000000000 k
b0000000000000000000000000000000000100000000000000000000000000000 m
b0000000000000000000000000000000000000111111111111111111111111111 o
b0000000000000000000000000000000000011111111111111111111111111111 q
b001110 s
b001111 t
b11111111111111111111111111111111111110000000000000000000000000000000 &!
b0000000000000000000000000000000000001000000000000000000000000000 6!
18!
#1750
08!
#1755
b0000000000000000000000000000000000010000000000000000000000000000 <
b11111111111111111111111111111111111110000000000000000000000000000000 _
b11111111111111111111111111111111111000000000000000000000000000000000 e
b0000000000000000000000000000000000100000000000000000000000000000 k
b0000000000000000000000000000000010000000000000000000000000000000 m
b0000000000000000000000000000000000011111111111111111111111111111 o
b0000000000000000000000000000000001111111111111111111111111111111 q
b001111 s
b010000 t
b11111111111111111111111111111111111000000000000000000000000000000000 &!
b0000000000000000000000000000000000100000000000000000000000000000 6!
18!
#1760
08!
#1765
b0000000000000000000000000000000001000000000000000000000000000000 <
b11111111111111111111111111111111111000000000000000000000000000000000 _
b11111111111111111111111111111111100000000000000000000000000000000000 e
b0000000000000000000000000000000010000000000000000000000000000000 k
b0000000000000000000000000000001000000000000000000000000000000000 m
b0000000000000000000000000000000001111111111111111111111111111111 o
b0000000000000000000000000000000111111111111111111111111111111111 q
b010000 s
b010001 t
b11111111111111111111111111111111100000000000000000000000000000000000 &!
b0000000000000000000000000000000010000000000000000000000000000000 6!
18!
#1770
08!
#1775
b0000000000000000000000000000000100000000000000000000000000000000 <
b11111111111111111111111111111111100000000000000000000000000000000000 _
b11111111111111111111111111111110000000000000000000000000000000000000 e
b0000000000000000000000000000001000000000000000000000000000000000 k
b0000000000000000000000000000100000000000000000000000000000000000 m
b0000000000000000000000000000000111111111111111111111111111111111 o
b0000000000000000000000000000011111111111111111111111111111111111 q
b010001 s
b010010 t
b11111111111111111111111111111110000000000000000000000000000000000000 &!
b0000000000000000000000000000001000000000000000000000000000000000 6!
18!
#1780
08!
#1785
b0000000000000000000000000000010000000000000000000000000000000000 <
b11111111111111111111111111111110000000000000000000000000000000000000 _
b11111111111111111111111111111000000000000000000000000000000000000000 e
b0000000000000000000000000000100000000000000000000000000000000000 k
b0000000000000000000000000010000000000000000000000000000000000000 m
b0000000000000000000000000000011111111111111111111111111111111111 o
b0000000000000000000000000001111111111111111111111111111111111111 q
b010010 s
b010011 t
b11111111111111111111111111111000000000000000000000000000000000000000 &!
b0000000000000000000000000000100000000000000000000000000000000000 6!
18!
#1790
08!
#1795
b0000000000000000000000000001000000000000000000000000000000000000 <
b11111111111111111111111111111000000000000000000000000000000000000000 _
b11111111111111111111111111100000000000000000000000000000000000000000 e
b0000000000000000000000000010000000000000000000000000000000000000 k
b0000000000000000000000001000000000000000000000000000000000000000 m
b0000000000000000000000000001111111111111111111111111111111111111 o
b0000000000000000000000000111111111111111111111111111111111111111 q
b010011 s
b010100 t
b11111111111111111111111111100000000000000000000000000000000000000000 &!
b0000000000000000000000000010000000000000000000000000000000000000 6!
18!
#1800
08!
#1805
b0000000000000000000000000100000000000000000000000000000000000000 <
b11111111111111111111111111100000000000000000000000000000000000000000 _
b11111111111111111111111110000000000000000000000000000000000000000000 e
b0000000000000000000000001000000000000000000000000000000000000000 k
b0000000000000000000000100000000000000000000000000000000000000000 m
b0000000000000000000000000111111111111111111111111111111111111111 o
b0000000000000000000000011111111111111111111111111111111111111111 q
b010100 s
b010101 t
b11111111111111111111111110000000000000000000000000000000000000000000 &!
b0000000000000000000000001000000000000000000000000000000000000000 6!
18!
#1810
08!
#1815
b0000000000000000000000010000000000000000000000000000000000000000 <
b11111111111111111111111110000000000000000000000000000000000000000000 _
b11111111111111111111111000000000000000000000000000000000000000000000 e
b0000000000000000000000100000000000000000000000000000000000000000 k
b0000000000000000000010000000000000000000000000000000000000000000 m
b0000000000000000000000011111111111111111111111111111111111111111 o
b0000000000000000000001111111111111111111111111111111111111111111 q
b010101 s
b010110 t
b11111111111111111111111000000000000000000000000000000000000000000000 &!
b0000000000000000000000100000000000000000000000000000000000000000 6!
18!
#1820
08!
#1825
b0000000000000000000001000000000000000000000000000000000000000000 <
b11111111111111111111111000000000000000000000000000000000000000000000 _
b11111111111111111111100000000000000000000000000000000000000000000000 e
b0000000000000000000010000000000000000000000000000000000000000000 k
b0000000000000000001000000000000000000000000000000000000000000000 m
b0000000000000000000001111111111111111111111111111111111111111111 o
b0000000000000000000111111111111111111111111111111111111111111111 q
b010110 s
b010111 t
b11111111111111111111100000000000000000000000000000000000000000000000 &!
b0000000000000000000010000000000000000000000000000000000000000000 6!
18!
#1830
08!
#1835
b0000000000000000000100000000000000000000000000000000000000000000 <
b11111111111111111111100000000000000000000000000000000000000000000000 _
b11111111111111111110000000000000000000000000000000000000000000000000 e
b0000000000000000001000000000000000000000000000000000000000000000 k
b0000000000000000100000000000000000000000000000000000000000000000 m
b0000000000000000000111111111111111111111111111111111111111111111 o
b0000000000000000011111111111111111111111111111111111111111111111 q
b010111 s
b011000 t
b11111111111111111110000000000000000000000000000000000000000000000000 &!
b0000000000000000001000000000000000000000000000000000000000000000 6!
18!
#1840
08!
#1845
b0000000000000000010000000000000000000000000000000000000000000000 <
b11111111111111111110000000000000000000000000000000000000000000000000 _
b11111111111111111000000000000000000000000000000000000000000000000000 e
b0000000000000000100000000000000000000000000000000000000000000000 k
b0000000000000010000000000000000000000000000000000000000000000000 m
b0000000000000000011111111111111111111111111111111111111111111111 o
b0000000000000001111111111111111111111111111111111111111111111111 q
b011000 s
b011001 t
b11111111111111111000000000000000000000000000000000000000000000000000 &!
b0000000000000000100000000000000000000000000000000000000000000000 6!
18!
#1850
08!
#1855
b0000000000000001000000000000000000000000000000000000000000000000 <
b11111111111111111000000000000000000000000000000000000000000000000000 _
b11111111111111100000000000000000000000000000000000000000000000000000 e
b0000000000000010000000000000000000000000000000000000000000000000 k
b0000000000001000000000000000000000000000000000000000000000000000 m
b0000000000000001111111111111111111111111111111111111111111111111 o
b0000000000000111111111111111111111111111111111111111111111111111 q
b011001 s
b011010 t
b11111111111111100000000000000000000000000000000000000000000000000000 &!
b0000000000000010000000000000000000000000000000000000000000000000 6!
18!
#1860
08!
#1865
b0000000000000100000000000000000000000000000000000000000000000000 <
b11111111111111100000000000000000000000000000000000000000000000000000 _
b11111111111110000000000000000000000000000000000000000000000000000000 e
b0000000000001000000000000000000000000000000000000000000000000000 k
b0000000000100000000000000000000000000000000000000000000000000000 m
b0000000000000111111111111111111111111111111111111111111111111111 o
b0000000000011111111111111111111111111111111111111111111111111111 q
b011010 s
b011011 t
b11111111111110000000000000000000000000000000000000000000000000000000 &!
b0000000000001000000000000000000000000000000000000000000000000000 6!
18!
#1870
08!
#1875
b0000000000010000000000000000000000000000000000000000000000000000 <
b11111111111110000000000000000000000000000000000000000000000000000000 _
b11111111111000000000000000000000000000000000000000000000000000000000 e
b0000000000100000000000000000000000000000000000000000000000000000 k
b0000000010000000000000000000000000000000000000000000000000000000 m
b0000000000011111111111111111111111111111111111111111111111111111 o
b0000000001111111111111111111111111111111111111111111111111111111 q
b011011 s
b011100 t
b11111111111000000000000000000000000000000000000000000000000000000000 &!
b0000000000100000000000000000000000000000000000000000000000000000 6!
18!
#1880
08!
#1885
b0000000001000000000000000000000000000000000000000000000000000000 <
b11111111111000000000000000000000000000000000000000000000000000000000 _
b11111111100000000000000000000000000000000000000000000000000000000000 e
b0000000010000000000000000000000000000000000000000000000000000000 k
b0000001000000000000000000000000000000000000000000000000000000000 m
b0000000001111111111111111111111111111111111111111111111111111111 o
b0000000111111111111111111111111111111111111111111111111111111111 q
b011100 s
b011101 t
b11111111100000000000000000000000000000000000000000000000000000000000 &!
b0000000010000000000000000000000000000000000000000000000000000000 6!
18!
#1890
08!
#1895
b0000000100000000000000000000000000000000000000000000000000000000 <
b11111111100000000000000000000000000000000000000000000000000000000000 _
b11111110000000000000000000000000000000000000000000000000000000000000 e
b0000001000000000000000000000000000000000000000000000000000000000 k
b0000100000000000000000000000000000000000000000000000000000000000 m
b0000000111111111111111111111111111111111111111111111111111111111 o
b0000011111111111111111111111111111111111111111111111111111111111 q
b011101 s
b011110 t
b11111110000000000000000000000000000000000000000000000000000000000000 &!
b0000001000000000000000000000000000000000000000000000000000000000 6!
18!
#1900
08!
#1905
b1111110 9
b0000010000000000000000000000000000000000000000000000000000000000 <
b11111110000000000000000000000000000000000000000000000000000000000000 _
b11111000000000000000000000000000000000000000000000000000000000000000 e
b0000100000000000000000000000000000000000000000000000000000000000 k
b0010000000000000000000000000000000000000000000000000000000000000 m
b0000011111111111111111111111111111111111111111111111111111111111 o
b0001111111111111111111111111111111111111111111111111111111111111 q
b011110 s
b011111 t
b11111000000000000000000000000000000000000000000000000000000000000000 &!
b0000100000000000000000000000000000000000000000000000000000000000 6!
18!
#1910
08!
#1915
18
b1111000 9
b100 ;
b0001000000000000000000000000000000000000000000000000000000000000 <
b11111000000000000000000000000000000000000000000000000000000000000000 _
b11000000000000000000000000000000000000000000000000000000000000000000 e
b01000000000000000000000000000000000000000000000000000000000000000000 h
b0010000000000000000000000000000000000000000000000000000000000000 k
b0111111111111111111111111111111111111111111111111111111111111111 m
b0001111111111111111111111111111111111111111111111111111111111111 o
b0111111111111111111111111111111111111111111111111111111111111110 q
b011111 s
b100000 t
b00100000000000000000000000000000000000000000000000000000000000000000 #!
b11100000000000000000000000000000000000000000000000000000000000000000 &!
b00100000000000000000000000000000000000000000000000000000000000000000 ,!
b0010000000000000000000000000000000000000000000000000000000000000 6!
18!
b011 J!
#1920
08!
#1925
b011 #
06
17
08
b0000000 9
b000 ;
b0011111111111111111111111111111111111111111111111111111111111111 <
b0000000000000000000000000000000000000000000000000000000000000001 >
b11000000000000000000000000000000000000000000000000000000000000000000 _
b01000000000000000000000000000000000000000000000000000000000000000000 b
b00000000000000000000000000000000000000000000000000000000000000000000 e
b00000000000000000000000000000000000000000000000000000000000000000000 h
b0111111111111111111111111111111111111111111111111111111111111111 k
b1111111111111111111111111111111111111111111111111111111111111100 m
b0111111111111111111111111111111111111111111111111111111111111110 o
b1111111111111111111111111111111111111111111111111111111111111011 q
b100000 s
b100001 t
b00000000000000000000000000000000000000000000000000000000000000000000 #!
b00000000000000000000000000000000000000000000000000000000000000000000 &!
b00000000000000000000000000000000000000000000000000000000000000000000 ,!
b0111111111111111111111111111111111111111111111111111111111111111 6!
18!
b101 J!
#1930
08!
#1935
b101 #
07
18!
b100 J!
#1940
08!
#1945
b100 #
b1100000000000000000000000000000000000000000000000000000000000001 B
18!
1K!
#1950
08!
#1955
b1100000000000000000000000000000000000000000000000000000000000001 @
1L
18!
1A!
b1100000000000000000000000000000000000000000000000000000000000001 C!
#1960
08!
1B!
b000 J!
0K!
#1965
b000 #
0L
18!
1;!
0A!
0I!
