sim/wave_pos_pos.vcd
$version Generated by VerilatedVcd $end
$date Wed Jun  3 16:16:40 2026
 $end
$timescale   1ps $end

 $scope module TOP $end
  $var wire  1 I! busy_o $end
  $var wire  1 8! clk $end
  $var wire  1 G! div_by_zero_o $end
  $var wire 64 <! dividend_i [63:0] $end
  $var wire 64 >! divisor_i [63:0] $end
  $var wire  1 H! overflow_o $end
  $var wire 64 C! quotient_o [63:0] $end
  $var wire  1 B! ready_i $end
  $var wire  1 ;! ready_o $end
  $var wire 64 E! remainder_o [63:0] $end
  $var wire  1 9! rst_n $end
  $var wire  1 @! signed_op_i $end
  $var wire  1 :! valid_i $end
  $var wire  1 A! valid_o $end
  $scope module div_srt4_pkg $end
   $var wire 32 Q! ITER_CNT_BITS [31:0] $end
   $var wire 32 N! LZC_BITS [31:0] $end
   $var wire 32 P! MAX_ITER [31:0] $end
   $var wire 32 M! PR_WIDTH [31:0] $end
   $var wire 32 O! QDS_DIV_BITS [31:0] $end
   $var wire 32 N! QDS_PR_BITS [31:0] $end
   $var wire 32 L! Q_WIDTH [31:0] $end
   $var wire 32 L! WIDTH [31:0] $end
  $upscope $end
  $scope module div_srt4_top $end
   $var wire 64 + abs_dividend [63:0] $end
   $var wire 64 - abs_divisor [63:0] $end
   $var wire  1 I! busy_o $end
   $var wire  1 8! clk $end
   $var wire  3 : d_hat [2:0] $end
   $var wire  1 I div_by_zero_next $end
   $var wire  1 G! div_by_zero_o $end
   $var wire  1 H div_by_zero_q $end
   $var wire 64 <! dividend_i [63:0] $end
   $var wire 64 $ dividend_q [63:0] $end
   $var wire  1 ) dividend_sign $end
   $var wire 64 >! divisor_i [63:0] $end
   $var wire 64 & divisor_q [63:0] $end
   $var wire  1 * divisor_sign $end
   $var wire  1 7 dp_corr_step $end
   $var wire  1 8 dp_done $end
   $var wire  1 6 dp_iter_step $end
   $var wire  1 5 dp_prep_step $end
   $var wire  1 2 is_a_lt_d $end
   $var wire  1 1 is_a_zero $end
   $var wire  1 3 is_d_one $end
   $var wire  1 / is_div_zero $end
   $var wire  1 0 is_overflow $end
   $var wire  1 K overflow_next $end
   $var wire  1 H! overflow_o $end
   $var wire  1 J overflow_q $end
   $var wire  7 9 pr_est [6:0] $end
   $var wire  3 ; q_digit [2:0] $end
   $var wire 64 < q_raw [63:0] $end
   $var wire 64 C! quotient_o [63:0] $end
   $var wire 64 B quotient_o_next [63:0] $end
   $var wire 64 @ quotient_o_q [63:0] $end
   $var wire 64 > r_raw [63:0] $end
   $var wire  1 B! ready_i $end
   $var wire  1 ;! ready_o $end
   $var wire 64 E! remainder_o [63:0] $end
   $var wire 64 F remainder_o_next [63:0] $end
   $var wire 64 D remainder_o_q [63:0] $end
   $var wire  1 9! rst_n $end
   $var wire  1 4 short_circuit $end
   $var wire  1 @! signed_op_i $end
   $var wire  1 ( signed_op_q $end
   $var wire  3 J! state_next [2:0] $end
   $var wire  3 # state_q [2:0] $end
   $var wire  1 :! valid_i $end
   $var wire  1 A! valid_o $end
   $var wire  1 K! valid_o_next $end
   $var wire  1 L valid_o_q $end
   $scope module u_datapath $end
    $var wire 64 q QM_next [63:0] $end
    $var wire 64 o QM_q [63:0] $end
    $var wire 64 m Q_next [63:0] $end
    $var wire 64 k Q_q [63:0] $end
    $var wire 64 R a_norm_calc [63:0] $end
    $var wire 64 V abs_a_q [63:0] $end
    $var wire 64 X abs_d_q [63:0] $end
    $var wire 64 + abs_dividend_i [63:0] $end
    $var wire 64 - abs_divisor_i [63:0] $end
    $var wire 68 ,! carry_raw [67:0] $end
    $var wire  1 8! clk $end
    $var wire  1 7 corr_step $end
    $var wire  3 : d_hat_o [2:0] $end
    $var wire 68 { d_neg_1x [67:0] $end
    $var wire 68 ~ d_neg_2x [67:0] $end
    $var wire 64 T d_norm_calc [63:0] $end
    $var wire 64 Z d_norm_q [63:0] $end
    $var wire 68 u d_pos_1x [67:0] $end
    $var wire 68 x d_pos_2x [67:0] $end
    $var wire  1 8 done_o $end
    $var wire  6 t iter_cnt_next [5:0] $end
    $var wire  6 s iter_cnt_q [5:0] $end
    $var wire  1 6 iter_step $end
    $var wire  7 O k_calc [6:0] $end
    $var wire  7 M lzc_a [6:0] $end
    $var wire  7 N lzc_d [6:0] $end
    $var wire  7 ^ lzc_d_q [6:0] $end
    $var wire 68 #! mult [67:0] $end
    $var wire  7 P n_calc [6:0] $end
    $var wire  7 \ n_q [6:0] $end
    $var wire 68 )! pr_4x_carry [67:0] $end
    $var wire 68 &! pr_4x_sum [67:0] $end
    $var wire 68 h pr_carry_next [67:0] $end
    $var wire 68 b pr_carry_q [67:0] $end
    $var wire 68 3! pr_corrected [67:0] $end
    $var wire  7 9 pr_est_o [6:0] $end
    $var wire 68 /! pr_full_q [67:0] $end
    $var wire  1 2! pr_negative $end
    $var wire 68 e pr_sum_next [67:0] $end
    $var wire 68 _ pr_sum_q [67:0] $end
    $var wire  1 5 prep_step $end
    $var wire 64 6! q_corrected [63:0] $end
    $var wire  3 ; q_digit_i [2:0] $end
    $var wire 64 < q_int [63:0] $end
    $var wire 64 < quotient_o [63:0] $end
    $var wire 64 > r_calc [63:0] $end
    $var wire 64 > remainder_o [63:0] $end
    $var wire  1 9! rst_n $end
    $var wire  7 Q shift_calc [6:0] $end
    $var wire  7 ] shift_q [6:0] $end
   $upscope $end
   $scope module u_qds $end
    $var wire  3 : d_hat_i [2:0] $end
    $var wire  7 9 pr_est_i [6:0] $end
    $var wire  3 ; q_digit_o [2:0] $end
   $upscope $end
  $upscope $end
 $upscope $end
$enddefinitions $end


#850
b000 #
b1111111111111111111111111111111111111111111111111111111111010110 $
b0000000000000000000000000000000000000000000000000000000000101010 &
1(
1)
0*
b0000000000000000000000000000000000000000000000000000000000101010 +
b0000000000000000000000000000000000000000000000000000000000101010 -
0/
00
01
02
03
04
05
06
07
08
b0000000 9
b010 :
b000 ;
b0000000000000000000000000000000000000000000000000000000000000001 <
b0000000000000000000000000000000000000000000000000000000000000000 >
b1111111111111111111111111111111111111111111111111111111111111111 @
b1111111111111111111111111111111111111111111111111111111111111111 B
b0000000000000000000000000000000000000000000000000000000000000000 D
b0000000000000000000000000000000000000000000000000000000000000000 F
0H
0I
0J
0K
0L
b0111010 M
b0111010 N
b0000000 O
b0000001 P
b0000000 Q
b1010100000000000000000000000000000000000000000000000000000000000 R
b1010100000000000000000000000000000000000000000000000000000000000 T
b0000000000000000000000000000000000000000000000000000000000101010 V
b0000000000000000000000000000000000000000000000000000000000101010 X
b1010100000000000000000000000000000000000000000000000000000000000 Z
b0000001 \
b0000000 ]
b0111010 ^
b11111100000000000000000000000000000000000000000000000000000000000000 _
b00000100000000000000000000000000000000000000000000000000000000000000 b
b11100000000000000000000000000000000000000000000000000000000000000000 e
b00100000000000000000000000000000000000000000000000000000000000000000 h
b0000000000000000000000000000000000000000000000000000000000000001 k
b0000000000000000000000000000000000000000000000000000000000000100 m
b0000000000000000000000000000000000000000000000000000000000000000 o
b0000000000000000000000000000000000000000000000000000000000000011 q
b000001 s
b000010 t
b00101010000000000000000000000000000000000000000000000000000000000000 u
b01010100000000000000000000000000000000000000000000000000000000000000 x
b11010110000000000000000000000000000000000000000000000000000000000000 {
b10101100000000000000000000000000000000000000000000000000000000000000 ~
b00000000000000000000000000000000000000000000000000000000000000000000 #!
b11110000000000000000000000000000000000000000000000000000000000000000 &!
b00010000000000000000000000000000000000000000000000000000000000000000 )!
b00010000000000000000000000000000000000000000000000000000000000000000 ,!
b00000000000000000000000000000000000000000000000000000000000000000000 /!
02!
b00000000000000000000000000000000000000000000000000000000000000000000 3!
b0000000000000000000000000000000000000000000000000000000000000001 6!
08!
19!
1:!
1;!
b0000000000000000000000000000000000000000000000000000000001100100 <!
b0000000000000000000000000000000000000000000000000000000000000111 >!
1@!
0A!
0B!
b1111111111111111111111111111111111111111111111111111111111111111 C!
b0000000000000000000000000000000000000000000000000000000000000000 E!
0G!
0H!
0I!
b001 J!
0K!
b00000000000000000000000001000000 L!
b00000000000000000000000001000100 M!
b00000000000000000000000000000111 N!
b00000000000000000000000000000011 O!
b00000000000000000000000000100000 P!
b00000000000000000000000000000110 Q!
#855
b001 #
b0000000000000000000000000000000000000000000000000000000001100100 $
b0000000000000000000000000000000000000000000000000000000000000111 &
0)
b0000000000000000000000000000000000000000000000000000000001100100 +
b0000000000000000000000000000000000000000000000000000000000000111 -
15
b0111001 M
b0111101 N
b0000100 O
b0000011 P
b1100100000000000000000000000000000000000000000000000000000000000 R
b1110000000000000000000000000000000000000000000000000000000000000 T
18!
0;!
1I!
b010 J!
#860
08!
0:!
#865
b010 #
05
16
b0001100 9
b110 :
b001 ;
b0000000000000000000000000000000000000000000000000000000000000000 <
b0000000000000000000000000000000000000000000000000000000001100100 V
b0000000000000000000000000000000000000000000000000000000000000111 X
b1110000000000000000000000000000000000000000000000000000000000000 Z
b0000011 \
b0111101 ^
b00001100100000000000000000000000000000000000000000000000000000000000 _
b00000000000000000000000000000000000000000000000000000000000000000000 b
b11111010000000000000000000000000000000000000000000000000000000000000 e
b00000000000000000000000000000000000000000000000000000000000000000000 h
b0000000000000000000000000000000000000000000000000000000000000000 k
b0000000000000000000000000000000000000000000000000000000000000001 m
b0000000000000000000000000000000000000000000000000000000000000000 q
b000000 s
b000001 t
b00111000000000000000000000000000000000000000000000000000000000000000 u
b01110000000000000000000000000000000000000000000000000000000000000000 x
b11001000000000000000000000000000000000000000000000000000000000000000 {
b10010000000000000000000000000000000000000000000000000000000000000000 ~
b11001000000000000000000000000000000000000000000000000000000000000000 #!
b00110010000000000000000000000000000000000000000000000000000000000000 &!
b00000000000000000000000000000000000000000000000000000000000000000000 )!
b00000000000000000000000000000000000000000000000000000000000000000000 ,!
b0000000000000000000000000000000000000000000000000000000000000000 6!
18!
#870
08!
#875
b1111010 9
b000 ;
b0000000000000000000000000000000000000000000000000000000000000001 <
b11111010000000000000000000000000000000000000000000000000000000000000 _
b11101000000000000000000000000000000000000000000000000000000000000000 e
b0000000000000000000000000000000000000000000000000000000000000001 k
b0000000000000000000000000000000000000000000000000000000000000100 m
b0000000000000000000000000000000000000000000000000000000000000011 q
b000001 s
b000010 t
b00000000000000000000000000000000000000000000000000000000000000000000 #!
b11101000000000000000000000000000000000000000000000000000000000000000 &!
b0000000000000000000000000000000000000000000000000000000000000001 6!
18!
#880
08!
#885
18
b1101000 9
b101 ;
b0000000000000000000000000000000000000000000000000000000000000100 <
b11101000000000000000000000000000000000000000000000000000000000000000 _
b11010000000000000000000000000000000000000000000000000000000000000000 e
b01000000000000000000000000000000000000000000000000000000000000000000 h
b0000000000000000000000000000000000000000000000000000000000000100 k
b0000000000000000000000000000000000000000000000000000000000001110 m
b0000000000000000000000000000000000000000000000000000000000000011 o
b0000000000000000000000000000000000000000000000000000000000001101 q
b000010 s
b000011 t
b01110000000000000000000000000000000000000000000000000000000000000000 #!
b10100000000000000000000000000000000000000000000000000000000000000000 &!
b00100000000000000000000000000000000000000000000000000000000000000000 ,!
b0000000000000000000000000000000000000000000000000000000000000100 6!
18!
b011 J!
#890
08!
#895
b011 #
06
17
08
b0010000 9
b001 ;
b0000000000000000000000000000000000000000000000000000000000001110 <
b11010000000000000000000000000000000000000000000000000000000000000000 _
b01000000000000000000000000000000000000000000000000000000000000000000 b
b10001000000000000000000000000000000000000000000000000000000000000000 e
b10000000000000000000000000000000000000000000000000000000000000000000 h
b0000000000000000000000000000000000000000000000000000000000001110 k
b0000000000000000000000000000000000000000000000000000000000111001 m
b0000000000000000000000000000000000000000000000000000000000001101 o
b0000000000000000000000000000000000000000000000000000000000111000 q
b000011 s
b000100 t
b11001000000000000000000000000000000000000000000000000000000000000000 #!
b01000000000000000000000000000000000000000000000000000000000000000000 &!
b01000000000000000000000000000000000000000000000000000000000000000000 ,!
b0000000000000000000000000000000000000000000000000000000000001110 6!
18!
b101 J!
#900
08!
#905
b101 #
07
b0000000000000000000000000000000000000000000000000000000000000010 >
b00010000000000000000000000000000000000000000000000000000000000000000 /!
b00010000000000000000000000000000000000000000000000000000000000000000 3!
18!
b100 J!
#910
08!
#915
b100 #
b0000000000000000000000000000000000000000000000000000000000001110 B
b0000000000000000000000000000000000000000000000000000000000000010 F
18!
1K!
#920
08!
#925
b0000000000000000000000000000000000000000000000000000000000001110 @
b0000000000000000000000000000000000000000000000000000000000000010 D
1L
18!
1A!
b0000000000000000000000000000000000000000000000000000000000001110 C!
b0000000000000000000000000000000000000000000000000000000000000010 E!
#930
08!
1B!
b000 J!
0K!
#935
b000 #
0L
18!
1;!
0A!
0I!
