sim/wave_69_10_plus_99_random.vcd
$version Generated by VerilatedVcd $end
$date Sat May 23 22:31:27 2026
 $end
$timescale   1ps $end

 $scope module TOP $end
  $var wire  1 J! busy_o $end
  $var wire  1 9! clk $end
  $var wire  1 H! div_by_zero_o $end
  $var wire 64 =! dividend_i [63:0] $end
  $var wire 64 ?! divisor_i [63:0] $end
  $var wire  1 I! overflow_o $end
  $var wire 64 D! quotient_o [63:0] $end
  $var wire  1 C! ready_i $end
  $var wire  1 <! ready_o $end
  $var wire 64 F! remainder_o [63:0] $end
  $var wire  1 :! rst_n $end
  $var wire  1 A! signed_op_i $end
  $var wire  1 ;! valid_i $end
  $var wire  1 B! valid_o $end
  $scope module div_srt4_pkg $end
   $var wire 32 S! ITER_CNT_BITS [31:0] $end
   $var wire 32 P! LZC_BITS [31:0] $end
   $var wire  7 + M1_TABLE(0) [6:0] $end
   $var wire  7 , M1_TABLE(1) [6:0] $end
   $var wire  7 - M1_TABLE(2) [6:0] $end
   $var wire  7 . M1_TABLE(3) [6:0] $end
   $var wire  7 / M1_TABLE(4) [6:0] $end
   $var wire  7 0 M1_TABLE(5) [6:0] $end
   $var wire  7 1 M1_TABLE(6) [6:0] $end
   $var wire  7 2 M1_TABLE(7) [6:0] $end
   $var wire  7 # M2_TABLE(0) [6:0] $end
   $var wire  7 $ M2_TABLE(1) [6:0] $end
   $var wire  7 % M2_TABLE(2) [6:0] $end
   $var wire  7 & M2_TABLE(3) [6:0] $end
   $var wire  7 ' M2_TABLE(4) [6:0] $end
   $var wire  7 ( M2_TABLE(5) [6:0] $end
   $var wire  7 ) M2_TABLE(6) [6:0] $end
   $var wire  7 * M2_TABLE(7) [6:0] $end
   $var wire 32 R! MAX_ITER [31:0] $end
   $var wire 32 N! PR_WIDTH [31:0] $end
   $var wire 32 Q! QDS_DIV_BITS [31:0] $end
   $var wire 32 P! QDS_PR_BITS [31:0] $end
   $var wire 32 O! Q_WIDTH [31:0] $end
   $var wire 32 M! WIDTH [31:0] $end
  $upscope $end
  $scope module div_srt4_top $end
   $var wire 64 ; abs_dividend [63:0] $end
   $var wire 64 = abs_divisor [63:0] $end
   $var wire  1 J! busy_o $end
   $var wire  1 9! clk $end
   $var wire  3 I d_hat [2:0] $end
   $var wire  1 X div_by_zero_next $end
   $var wire  1 H! div_by_zero_o $end
   $var wire  1 W div_by_zero_q $end
   $var wire 64 =! dividend_i [63:0] $end
   $var wire 64 4 dividend_q [63:0] $end
   $var wire  1 9 dividend_sign $end
   $var wire 64 ?! divisor_i [63:0] $end
   $var wire 64 6 divisor_q [63:0] $end
   $var wire  1 : divisor_sign $end
   $var wire  1 G dp_done $end
   $var wire  1 F dp_iter_step $end
   $var wire  1 E dp_prep_step $end
   $var wire  1 B is_a_lt_d $end
   $var wire  1 A is_a_zero $end
   $var wire  1 C is_d_one $end
   $var wire  1 ? is_div_zero $end
   $var wire  1 @ is_overflow $end
   $var wire  1 Z overflow_next $end
   $var wire  1 I! overflow_o $end
   $var wire  1 Y overflow_q $end
   $var wire  7 H pr_est [6:0] $end
   $var wire  3 J q_digit [2:0] $end
   $var wire 64 K q_raw [63:0] $end
   $var wire 64 D! quotient_o [63:0] $end
   $var wire 64 Q quotient_o_next [63:0] $end
   $var wire 64 O quotient_o_q [63:0] $end
   $var wire 64 M r_raw [63:0] $end
   $var wire  1 C! ready_i $end
   $var wire  1 <! ready_o $end
   $var wire 64 F! remainder_o [63:0] $end
   $var wire 64 U remainder_o_next [63:0] $end
   $var wire 64 S remainder_o_q [63:0] $end
   $var wire  1 :! rst_n $end
   $var wire  1 D short_circuit $end
   $var wire  1 A! signed_op_i $end
   $var wire  1 8 signed_op_q $end
   $var wire  3 K! state_next [2:0] $end
   $var wire  3 3 state_q [2:0] $end
   $var wire  1 ;! valid_i $end
   $var wire  1 B! valid_o $end
   $var wire  1 L! valid_o_next $end
   $var wire  1 [ valid_o_q $end
   $scope module u_datapath $end
    $var wire 66 | QM_next [65:0] $end
    $var wire 66 y QM_q [65:0] $end
    $var wire 66 v Q_next [65:0] $end
    $var wire 66 s Q_q [65:0] $end
    $var wire 64 a a_norm_calc [63:0] $end
    $var wire 64 e abs_a_q [63:0] $end
    $var wire 64 g abs_d_q [63:0] $end
    $var wire 64 ; abs_dividend_i [63:0] $end
    $var wire 64 = abs_divisor_i [63:0] $end
    $var wire  1 9! clk $end
    $var wire  3 I d_hat_o [2:0] $end
    $var wire 68 )! d_neg_1x [67:0] $end
    $var wire 68 ,! d_neg_2x [67:0] $end
    $var wire 64 c d_norm_calc [63:0] $end
    $var wire 64 i d_norm_q [63:0] $end
    $var wire 68 #! d_pos_1x [67:0] $end
    $var wire 68 &! d_pos_2x [67:0] $end
    $var wire  1 G done_o $end
    $var wire  6 "! iter_cnt_next [5:0] $end
    $var wire  6 !! iter_cnt_q [5:0] $end
    $var wire  1 F iter_step $end
    $var wire  7 ^ k_calc [6:0] $end
    $var wire  7 \ lzc_a [6:0] $end
    $var wire  7 ] lzc_d [6:0] $end
    $var wire 68 /! mult [67:0] $end
    $var wire  7 _ n_calc [6:0] $end
    $var wire  7 k n_q [6:0] $end
    $var wire 68 2! pr_4x [67:0] $end
    $var wire  7 H pr_est_o [6:0] $end
    $var wire  1 5! pr_negative $end
    $var wire 68 p pr_next [67:0] $end
    $var wire 68 m pr_q [67:0] $end
    $var wire  1 E prep_step $end
    $var wire 66 6! q_corrected [65:0] $end
    $var wire  3 J q_digit_i [2:0] $end
    $var wire 64 K q_int [63:0] $end
    $var wire 64 K quotient_o [63:0] $end
    $var wire 64 M r_calc [63:0] $end
    $var wire 64 M remainder_o [63:0] $end
    $var wire  1 :! rst_n $end
    $var wire  7 ` shift_calc [6:0] $end
    $var wire  7 l shift_q [6:0] $end
   $upscope $end
   $scope module u_qds $end
    $var wire  3 I d_hat_i [2:0] $end
    $var wire  7 H pr_est_i [6:0] $end
    $var wire  3 J q_digit_o [2:0] $end
   $upscope $end
  $upscope $end
 $upscope $end
$enddefinitions $end


#0
b0001100 #
b0001110 $
b0010000 %
b0010000 &
b0010010 '
b0010100 (
b0010110 )
b0011000 *
b0000100 +
b0000100 ,
b0000100 -
b0000100 .
b0000110 /
b0000110 0
b0001000 1
b0001000 2
b000 3
b0000000000000000000000000000000000000000000000000000000000000000 4
b0000000000000000000000000000000000000000000000000000000000000000 6
08
09
0:
b0000000000000000000000000000000000000000000000000000000000000000 ;
b0000000000000000000000000000000000000000000000000000000000000000 =
1?
0@
1A
0B
0C
1D
0E
0F
0G
b0000000 H
b000 I
b000 J
b0000000000000000000000000000000000000000000000000000000000000000 K
b0000000000000000000000000000000000000000000000000000000000000000 M
b0000000000000000000000000000000000000000000000000000000000000000 O
b0000000000000000000000000000000000000000000000000000000000000000 Q
b0000000000000000000000000000000000000000000000000000000000000000 S
b0000000000000000000000000000000000000000000000000000000000000000 U
0W
0X
0Y
0Z
0[
b1000000 \
b1000000 ]
b0000000 ^
b0000010 _
b0000010 `
b0000000000000000000000000000000000000000000000000000000000000000 a
b0000000000000000000000000000000000000000000000000000000000000000 c
b0000000000000000000000000000000000000000000000000000000000000000 e
b0000000000000000000000000000000000000000000000000000000000000000 g
b0000000000000000000000000000000000000000000000000000000000000000 i
b0000000 k
b0000000 l
b00000000000000000000000000000000000000000000000000000000000000000000 m
b00000000000000000000000000000000000000000000000000000000000000000000 p
b000000000000000000000000000000000000000000000000000000000000000000 s
b000000000000000000000000000000000000000000000000000000000000000000 v
b000000000000000000000000000000000000000000000000000000000000000000 y
b000000000000000000000000000000000000000000000000000000000000000011 |
b000000 !!
b000001 "!
b00000000000000000000000000000000000000000000000000000000000000000000 #!
b00000000000000000000000000000000000000000000000000000000000000000000 &!
b00000000000000000000000000000000000000000000000000000000000000000000 )!
b00000000000000000000000000000000000000000000000000000000000000000000 ,!
b00000000000000000000000000000000000000000000000000000000000000000000 /!
b00000000000000000000000000000000000000000000000000000000000000000000 2!
05!
b000000000000000000000000000000000000000000000000000000000000000000 6!
09!
0:!
0;!
1<!
b0000000000000000000000000000000000000000000000000000000000000000 =!
b0000000000000000000000000000000000000000000000000000000000000000 ?!
0A!
0B!
0C!
b0000000000000000000000000000000000000000000000000000000000000000 D!
b0000000000000000000000000000000000000000000000000000000000000000 F!
0H!
0I!
0J!
b000 K!
0L!
b00000000000000000000000001000000 M!
b00000000000000000000000001000100 N!
b00000000000000000000000001000010 O!
b00000000000000000000000000000111 P!
b00000000000000000000000000000011 Q!
b00000000000000000000000000100010 R!
b00000000000000000000000000000110 S!
#5
19!
#10
09!
#15
19!
#20
09!
#25
19!
#30
09!
#35
19!
#40
09!
#45
19!
#50
09!
1:!
1;!
b0000000000000000000000000000000000000000000000000000000001000101 =!
b0000000000000000000000000000000000000000000000000000000000001010 ?!
1A!
b001 K!
#55
b001 3
b0000000000000000000000000000000000000000000000000000000001000101 4
b0000000000000000000000000000000000000000000000000000000000001010 6
18
b0000000000000000000000000000000000000000000000000000000001000101 ;
b0000000000000000000000000000000000000000000000000000000000001010 =
0?
0A
0D
1E
b0111001 \
b0111100 ]
b0000011 ^
b0000100 _
b0000011 `
b1000101000000000000000000000000000000000000000000000000000000000 a
b1010000000000000000000000000000000000000000000000000000000000000 c
19!
0<!
1J!
b010 K!
#60
09!
0;!
#65
b010 3
0E
1F
b0001000 H
b010 I
b001 J
b0000000000000000000000000000000000000000000000000000000001000101 M
b0000000000000000000000000000000000000000000000000000000001000101 e
b0000000000000000000000000000000000000000000000000000000000001010 g
b1010000000000000000000000000000000000000000000000000000000000000 i
b0000100 k
b0000011 l
b00000100010100000000000000000000000000000000000000000000000000000000 m
b11111101010000000000000000000000000000000000000000000000000000000000 p
b000000000000000000000000000000000000000000000000000000000000000001 v
b000000000000000000000000000000000000000000000000000000000000000000 |
b00010100000000000000000000000000000000000000000000000000000000000000 #!
b00101000000000000000000000000000000000000000000000000000000000000000 &!
b11101100000000000000000000000000000000000000000000000000000000000000 )!
b11011000000000000000000000000000000000000000000000000000000000000000 ,!
b11101100000000000000000000000000000000000000000000000000000000000000 /!
b00010001010000000000000000000000000000000000000000000000000000000000 2!
19!
#70
09!
#75
b1111010 H
b100 J
b11111101010000000000000000000000000000000000000000000000000000000000 m
b00001001000000000000000000000000000000000000000000000000000000000000 p
b000000000000000000000000000000000000000000000000000000000000000001 s
b000000000000000000000000000000000000000000000000000000000000000011 v
b000000000000000000000000000000000000000000000000000000000000000010 |
b000001 !!
b000010 "!
b00010100000000000000000000000000000000000000000000000000000000000000 /!
b11110101000000000000000000000000000000000000000000000000000000000000 2!
15!
19!
#80
09!
#85
b0010010 H
b010 J
b00001001000000000000000000000000000000000000000000000000000000000000 m
b11111100000000000000000000000000000000000000000000000000000000000000 p
b000000000000000000000000000000000000000000000000000000000000000011 s
b000000000000000000000000000000000000000000000000000000000000001110 v
b000000000000000000000000000000000000000000000000000000000000000010 y
b000000000000000000000000000000000000000000000000000000000000001101 |
b000010 !!
b000011 "!
b11011000000000000000000000000000000000000000000000000000000000000000 /!
b00100100000000000000000000000000000000000000000000000000000000000000 2!
05!
b000000000000000000000000000000000000000000000000000000000000000011 6!
19!
#90
09!
#95
1G
b1111000 H
b100 J
b0000000000000000000000000000000000000000000000000000000000000001 K
b0000000000000000000000000000000000000000000000000000000000111011 M
b11111100000000000000000000000000000000000000000000000000000000000000 m
b00000100000000000000000000000000000000000000000000000000000000000000 p
b000000000000000000000000000000000000000000000000000000000000001110 s
b000000000000000000000000000000000000000000000000000000000000110111 v
b000000000000000000000000000000000000000000000000000000000000001101 y
b000000000000000000000000000000000000000000000000000000000000110110 |
b000011 !!
b000100 "!
b00010100000000000000000000000000000000000000000000000000000000000000 /!
b11110000000000000000000000000000000000000000000000000000000000000000 2!
15!
b000000000000000000000000000000000000000000000000000000000000001101 6!
19!
b011 K!
#100
09!
#105
b011 3
0F
0G
b0001000 H
b001 J
b0000000000000000000000000000000000000000000000000000000000000110 K
b0000000000000000000000000000000000000000000000000000000000001001 M
b00000100000000000000000000000000000000000000000000000000000000000000 m
b11111100000000000000000000000000000000000000000000000000000000000000 p
b000000000000000000000000000000000000000000000000000000000000110111 s
b000000000000000000000000000000000000000000000000000000000011011101 v
b000000000000000000000000000000000000000000000000000000000000110110 y
b000000000000000000000000000000000000000000000000000000000011011100 |
b000100 !!
b000101 "!
b11101100000000000000000000000000000000000000000000000000000000000000 /!
b00010000000000000000000000000000000000000000000000000000000000000000 2!
05!
b000000000000000000000000000000000000000000000000000000000000110111 6!
19!
b100 K!
#110
09!
#115
b100 3
b0000000000000000000000000000000000000000000000000000000000000110 Q
b0000000000000000000000000000000000000000000000000000000000001001 U
19!
1L!
#120
09!
#125
b0000000000000000000000000000000000000000000000000000000000000110 O
b0000000000000000000000000000000000000000000000000000000000001001 S
1[
19!
1B!
b0000000000000000000000000000000000000000000000000000000000000110 D!
b0000000000000000000000000000000000000000000000000000000000001001 F!
#130
09!
1C!
b000 K!
0L!
#135
b000 3
0[
19!
1<!
0B!
0J!
#140
09!
1;!
b0000010001001000101111100100011000101010001111000100010001100100 =!
b0101100001100110110000000011000100110110000101000000101100101001 ?!
0C!
b001 K!
#145
b001 3
b0000010001001000101111100100011000101010001111000100010001100100 4
b0101100001100110110000000011000100110110000101000000101100101001 6
b0000010001001000101111100100011000101010001111000100010001100100 ;
b0101100001100110110000000011000100110110000101000000101100101001 =
1B
1D
b0000101 \
b0000001 ]
b1111100 ^
b1000000 _
b0000010 `
b1000100100010111110010001100010101000111100010001000110010000000 a
b1011000011001101100000000110001001101100001010000001011001010010 c
19!
0<!
1J!
b100 K!
#150
09!
0;!
#155
b100 3
b0000000000000000000000000000000000000000000000000000000000000000 Q
b0000010001001000101111100100011000101010001111000100010001100100 U
19!
1L!
#160
09!
#165
b0000000000000000000000000000000000000000000000000000000000000000 O
b0000010001001000101111100100011000101010001111000100010001100100 S
1[
19!
1B!
b0000000000000000000000000000000000000000000000000000000000000000 D!
b0000010001001000101111100100011000101010001111000100010001100100 F!
#170
09!
1C!
b000 K!
0L!
#175
b000 3
0[
19!
1<!
0B!
0J!
#180
09!
1;!
b0001101001100110111001010110010000100000000001000011010110000110 =!
b0101000101111010101111111110110101101110100010110010110110011100 ?!
0C!
b001 K!
#185
b001 3
b0001101001100110111001010110010000100000000001000011010110000110 4
b0101000101111010101111111110110101101110100010110010110110011100 6
b0001101001100110111001010110010000100000000001000011010110000110 ;
b0101000101111010101111111110110101101110100010110010110110011100 =
b0000011 \
b1111110 ^
b0000001 _
b1101001100110111001010110010000100000000001000011010110000110000 a
b1010001011110101011111111101101011011101000101100101101100111000 c
19!
0<!
1J!
b100 K!
#190
09!
0;!
#195
b100 3
b0001101001100110111001010110010000100000000001000011010110000110 U
19!
1L!
#200
09!
#205
b0001101001100110111001010110010000100000000001000011010110000110 S
1[
19!
1B!
b0001101001100110111001010110010000100000000001000011010110000110 F!
#210
09!
1C!
b000 K!
0L!
#215
b000 3
0[
19!
1<!
0B!
0J!
#220
09!
1;!
b0010011010011100101001101101011100000011001100001011010100011111 =!
b0010111010111000000101001100001001100001111110000000000100000111 ?!
0C!
b001 K!
#225
b001 3
b0010011010011100101001101101011100000011001100001011010100011111 4
b0010111010111000000101001100001001100001111110000000000100000111 6
b0010011010011100101001101101011100000011001100001011010100011111 ;
b0010111010111000000101001100001001100001111110000000000100000111 =
b0000010 \
b0000010 ]
b0000000 ^
b0000010 _
b1001101001110010100110110101110000001100110000101101010001111100 a
b1011101011100000010100110000100110000111111000000000010000011100 c
19!
0<!
1J!
b100 K!
#230
09!
0;!
#235
b100 3
b0010011010011100101001101101011100000011001100001011010100011111 U
19!
1L!
#240
09!
#245
b0010011010011100101001101101011100000011001100001011010100011111 S
1[
19!
1B!
b0010011010011100101001101101011100000011001100001011010100011111 F!
#250
09!
1C!
b000 K!
0L!
#255
b000 3
0[
19!
1<!
0B!
0J!
#260
09!
1;!
b0010100010101111101001010010010100010001010111111000110001001000 =!
b0000110110101001110101000010000001100001010111011010111110100010 ?!
0C!
b001 K!
#265
b001 3
b0010100010101111101001010010010100010001010111111000110001001000 4
b0000110110101001110101000010000001100001010111011010111110100010 6
b0010100010101111101001010010010100010001010111111000110001001000 ;
b0000110110101001110101000010000001100001010111011010111110100010 =
0B
0D
1E
b0000100 ]
b0000010 ^
b0000011 _
b1010001010111110100101001001010001000101011111100011000100100000 a
b1101101010011101010000100000011000010101110110101111101000100000 c
19!
0<!
1J!
b010 K!
#270
09!
0;!
#275
b010 3
0E
1F
b0001010 H
b101 I
b0000000000000000000000000000000000000000000000000000000000000000 K
b0010100010101111101001010010010100010001010111111000110001001000 M
b0010100010101111101001010010010100010001010111111000110001001000 e
b0000110110101001110101000010000001100001010111011010111110100010 g
b1101101010011101010000100000011000010101110110101111101000100000 i
b0000011 k
b0000010 l
b00000101000101011111010010100100101000100010101111110001100010010000 m
b11111001000001000010101001010001110001011111010001100110111000000000 p
b000000000000000000000000000000000000000000000000000000000000000000 s
b000000000000000000000000000000000000000000000000000000000000000001 v
b000000000000000000000000000000000000000000000000000000000000000000 y
b000000000000000000000000000000000000000000000000000000000000000000 |
b000000 !!
b000001 "!
b00011011010100111010100001000000110000101011101101011111010001000000 #!
b00110110101001110101000010000001100001010111011010111110100010000000 &!
b11100100101011000101011110111111001111010100010010100000101111000000 )!
b11001001010110001010111101111110011110101000100101000001011110000000 ,!
b11100100101011000101011110111111001111010100010010100000101111000000 /!
b00010100010101111101001010010010100010001010111111000110001001000000 2!
b000000000000000000000000000000000000000000000000000000000000000000 6!
19!
#280
09!
#285
b1110010 H
b100 J
b11111001000001000010101001010001110001011111010001100110111000000000 m
b11111111011001000101000110000111110110101000110011111010110001000000 p
b000000000000000000000000000000000000000000000000000000000000000001 s
b000000000000000000000000000000000000000000000000000000000000000011 v
b000000000000000000000000000000000000000000000000000000000000000010 |
b000001 !!
b000010 "!
b00011011010100111010100001000000110000101011101101011111010001000000 /!
b11100100000100001010100101000111000101111101000110011011100000000000 2!
15!
19!
#290
09!
#295
1G
b1111110 H
b000 J
b11111111011001000101000110000111110110101000110011111010110001000000 m
b11111101100100010100011000011111011010100011001111101011000100000000 p
b000000000000000000000000000000000000000000000000000000000000000011 s
b000000000000000000000000000000000000000000000000000000000000001100 v
b000000000000000000000000000000000000000000000000000000000000000010 y
b000000000000000000000000000000000000000000000000000000000000001011 |
b000010 !!
b000011 "!
b00000000000000000000000000000000000000000000000000000000000000000000 /!
b11111101100100010100011000011111011010100011001111101011000100000000 2!
b000000000000000000000000000000000000000000000000000000000000000010 6!
19!
b011 K!
#300
09!
#305
b011 3
0F
0G
b1111011 H
b0000000000000000000000000000000000000000000000000000000000000010 K
b0000110101011011111111001110010001001110101001000010110100000100 M
b11111101100100010100011000011111011010100011001111101011000100000000 m
b11110110010001010001100001111101101010001100111110101100010000000000 p
b000000000000000000000000000000000000000000000000000000000000001100 s
b000000000000000000000000000000000000000000000000000000000000110000 v
b000000000000000000000000000000000000000000000000000000000000001011 y
b000000000000000000000000000000000000000000000000000000000000101111 |
b000011 !!
b000100 "!
b11110110010001010001100001111101101010001100111110101100010000000000 2!
b000000000000000000000000000000000000000000000000000000000000001011 6!
19!
b100 K!
#310
09!
#315
b100 3
b0000000000000000000000000000000000000000000000000000000000000010 Q
b0000110101011011111111001110010001001110101001000010110100000100 U
19!
1L!
#320
09!
#325
b0000000000000000000000000000000000000000000000000000000000000010 O
b0000110101011011111111001110010001001110101001000010110100000100 S
1[
19!
1B!
b0000000000000000000000000000000000000000000000000000000000000010 D!
b0000110101011011111111001110010001001110101001000010110100000100 F!
#330
09!
1C!
b000 K!
0L!
#335
b000 3
0[
19!
1<!
0B!
0J!
#340
09!
1;!
b0000101001110100001111001100010001000110100001011011101110101000 =!
b0100100001000110100000110101101001011111001000110111110011101011 ?!
0C!
b001 K!
#345
b001 3
b0000101001110100001111001100010001000110100001011011101110101000 4
b0100100001000110100000110101101001011111001000110111110011101011 6
b0000101001110100001111001100010001000110100001011011101110101000 ;
b0100100001000110100000110101101001011111001000110111110011101011 =
1B
1D
b0000100 \
b0000001 ]
b1111101 ^
b0000001 _
b0000011 `
b1010011101000011110011000100010001101000010110111011101010000000 a
b1001000010001101000001101011010010111110010001101111100111010110 c
19!
0<!
1J!
b100 K!
#350
09!
0;!
#355
b100 3
b0000000000000000000000000000000000000000000000000000000000000000 Q
b0000101001110100001111001100010001000110100001011011101110101000 U
19!
1L!
#360
09!
#365
b0000000000000000000000000000000000000000000000000000000000000000 O
b0000101001110100001111001100010001000110100001011011101110101000 S
1[
19!
1B!
b0000000000000000000000000000000000000000000000000000000000000000 D!
b0000101001110100001111001100010001000110100001011011101110101000 F!
#370
09!
1C!
b000 K!
0L!
#375
b000 3
0[
19!
1<!
0B!
0J!
#380
09!
1;!
b0111110110101010010100010000101100011100000000110100010100100000 =!
b0011101000101001101001010100000101000010011000110100000101001001 ?!
0C!
b001 K!
#385
b001 3
b0111110110101010010100010000101100011100000000110100010100100000 4
b0011101000101001101001010100000101000010011000110100000101001001 6
b0111110110101010010100010000101100011100000000110100010100100000 ;
b0011101000101001101001010100000101000010011000110100000101001001 =
0B
0D
1E
b0000001 \
b0000010 ]
b0000001 ^
b0000011 _
b1111101101010100101000100001011000111000000001101000101001000000 a
b1110100010100110100101010000010100001001100011010000010100100100 c
19!
0<!
1J!
b010 K!
#390
09!
0;!
#395
b010 3
0E
1F
b0001111 H
b110 I
b001 J
b0000000000000000000000000000000000000000000000000000000000000000 K
b0111110110101010010100010000101100011100000000110100010100100000 M
b0111110110101010010100010000101100011100000000110100010100100000 e
b0011101000101001101001010100000101000010011000110100000101001001 g
b1110100010100110100101010000010100001001100011010000010100100100 i
b0000011 l
b00000111110110101010010100010000101100011100000000110100010100100000 m
b00000010010101011100000110100010001001011100111100110000101000111000 p
b000000000000000000000000000000000000000000000000000000000000000000 s
b000000000000000000000000000000000000000000000000000000000000000001 v
b000000000000000000000000000000000000000000000000000000000000000000 y
b000000000000000000000000000000000000000000000000000000000000000000 |
b000000 !!
b000001 "!
b00011101000101001101001010100000101000010011000110100000101001001000 #!
b00111010001010011010010101000001010000100110001101000001010010010000 &!
b11100010111010110010110101011111010111101100111001011111010110111000 )!
b11000101110101100101101010111110101111011001110010111110101101110000 ,!
b11100010111010110010110101011111010111101100111001011111010110111000 /!
b00011111011010101001010001000010110001110000000011010001010010000000 2!
05!
b000000000000000000000000000000000000000000000000000000000000000000 6!
19!
#400
09!
#405
b0000100 H
b000 J
b00000010010101011100000110100010001001011100111100110000101000111000 m
b00001001010101110000011010001000100101110011110011000010100011100000 p
b000000000000000000000000000000000000000000000000000000000000000001 s
b000000000000000000000000000000000000000000000000000000000000000100 v
b000000000000000000000000000000000000000000000000000000000000000011 |
b000001 !!
b000010 "!
b00000000000000000000000000000000000000000000000000000000000000000000 /!
b00001001010101110000011010001000100101110011110011000010100011100000 2!
b000000000000000000000000000000000000000000000000000000000000000001 6!
19!
#410
09!
#415
1G
b0010010 H
b001 J
b00001001010101110000011010001000100101110011110011000010100011100000 m
b00001000010001110100011110000001101110111100000101101001100100111000 p
b000000000000000000000000000000000000000000000000000000000000000100 s
b000000000000000000000000000000000000000000000000000000000000010001 v
b000000000000000000000000000000000000000000000000000000000000000011 y
b000000000000000000000000000000000000000000000000000000000000010000 |
b000010 !!
b000011 "!
b11100010111010110010110101011111010111101100111001011111010110111000 /!
b00100101010111000001101000100010010111001111001100001010001110000000 2!
b000000000000000000000000000000000000000000000000000000000000000100 6!
19!
b011 K!
#420
09!
#425
b011 3
0F
0G
b0010000 H
b0000000000000000000000000000000000000000000000000000000000000010 K
b0000100101010111000001101000100010010111001111001100001010001110 M
b00001000010001110100011110000001101110111100000101101001100100111000 m
b00000100000010000100101101100110010011011101010000000101101010011000 p
b000000000000000000000000000000000000000000000000000000000000010001 s
b000000000000000000000000000000000000000000000000000000000001000101 v
b000000000000000000000000000000000000000000000000000000000000010000 y
b000000000000000000000000000000000000000000000000000000000001000100 |
b000011 !!
b000100 "!
b00100001000111010001111000000110111011110000010110100110010011100000 2!
b000000000000000000000000000000000000000000000000000000000000010001 6!
19!
b100 K!
#430
09!
#435
b100 3
b0000000000000000000000000000000000000000000000000000000000000010 Q
b0000100101010111000001101000100010010111001111001100001010001110 U
19!
1L!
#440
09!
#445
b0000000000000000000000000000000000000000000000000000000000000010 O
b0000100101010111000001101000100010010111001111001100001010001110 S
1[
19!
1B!
b0000000000000000000000000000000000000000000000000000000000000010 D!
b0000100101010111000001101000100010010111001111001100001010001110 F!
#450
09!
1C!
b000 K!
0L!
#455
b000 3
0[
19!
1<!
0B!
0J!
#460
09!
1;!
b0100100101110011101001010100111101000111000100011100111110001011 =!
b0101110101000001000000001111000101010000011111101111000011111000 ?!
0C!
b001 K!
#465
b001 3
b0100100101110011101001010100111101000111000100011100111110001011 4
b0101110101000001000000001111000101010000011111101111000011111000 6
b0100100101110011101001010100111101000111000100011100111110001011 ;
b0101110101000001000000001111000101010000011111101111000011111000 =
1B
1D
b0000001 ]
b0000000 ^
b0000010 _
b0000010 `
b1001001011100111010010101001111010001110001000111001111100010110 a
b1011101010000010000000011110001010100000111111011110000111110000 c
19!
0<!
1J!
b100 K!
#470
09!
0;!
#475
b100 3
b0000000000000000000000000000000000000000000000000000000000000000 Q
b0100100101110011101001010100111101000111000100011100111110001011 U
19!
1L!
#480
09!
#485
b0000000000000000000000000000000000000000000000000000000000000000 O
b0100100101110011101001010100111101000111000100011100111110001011 S
1[
19!
1B!
b0000000000000000000000000000000000000000000000000000000000000000 D!
b0100100101110011101001010100111101000111000100011100111110001011 F!
#490
09!
1C!
b000 K!
0L!
#495
b000 3
0[
19!
1<!
0B!
0J!
#500
09!
1;!
b0110010111100111100001101100110101001010101101110011001100110000 =!
b0010001100101011100010111111000101101010001100000100010100010011 ?!
0C!
b001 K!
#505
b001 3
b0110010111100111100001101100110101001010101101110011001100110000 4
b0010001100101011100010111111000101101010001100000100010100010011 6
b0110010111100111100001101100110101001010101101110011001100110000 ;
b0010001100101011100010111111000101101010001100000100010100010011 =
0B
0D
1E
b0000010 ]
b0000001 ^
b0000011 _
b0000011 `
b1100101111001111000011011001101010010101011011100110011001100000 a
b1000110010101110001011111100010110101000110000010001010001001100 c
19!
0<!
1J!
b010 K!
#510
09!
0;!
#515
b010 3
0E
1F
b0001100 H
b000 I
b010 J
b0000000000000000000000000000000000000000000000000000000000000000 K
b0110010111100111100001101100110101001010101101110011001100110000 M
b0110010111100111100001101100110101001010101101110011001100110000 e
b0010001100101011100010111111000101101010001100000100010100010011 g
b1000110010101110001011111100010110101000110000010001010001001100 i
b00000110010111100111100001101100110101001010101101110011001100110000 m
b11110110010011100101010111000001111010000111110110000111101110010000 p
b000000000000000000000000000000000000000000000000000000000000000000 s
b000000000000000000000000000000000000000000000000000000000000000010 v
b000000000000000000000000000000000000000000000000000000000000000000 y
b000000000000000000000000000000000000000000000000000000000000000001 |
b000000 !!
b000001 "!
b00010001100101011100010111111000101101010001100000100010100010011000 #!
b00100011001010111000101111110001011010100011000001000101000100110000 &!
b11101110011010100011101000000111010010101110011111011101011101101000 )!
b11011100110101000111010000001110100101011100111110111010111011010000 ,!
b11011100110101000111010000001110100101011100111110111010111011010000 /!
b00011001011110011110000110110011010100101010110111001100110011000000 2!
b000000000000000000000000000000000000000000000000000000000000000000 6!
19!
#520
09!
#525
b1101100 H
b101 J
b11110110010011100101010111000001111010000111110110000111101110010000 m
b11111100011001001110001011111001000011000010011001100011111101110000 p
b000000000000000000000000000000000000000000000000000000000000000010 s
b000000000000000000000000000000000000000000000000000000000000000110 v
b000000000000000000000000000000000000000000000000000000000000000001 y
b000000000000000000000000000000000000000000000000000000000000000101 |
b000001 !!
b000010 "!
b00100011001010111000101111110001011010100011000001000101000100110000 /!
b11011001001110010101011100000111101000011111011000011110111001000000 2!
15!
b000000000000000000000000000000000000000000000000000000000000000001 6!
19!
#530
09!
#535
1G
b1111000 H
b100 J
b11111100011001001110001011111001000011000010011001100011111101110000 m
b00000011001010010101000111011100111001011011000110110010011001011000 p
b000000000000000000000000000000000000000000000000000000000000000110 s
b000000000000000000000000000000000000000000000000000000000000010111 v
b000000000000000000000000000000000000000000000000000000000000000101 y
b000000000000000000000000000000000000000000000000000000000000010110 |
b000010 !!
b000011 "!
b00010001100101011100010111111000101101010001100000100010100010011000 /!
b11110001100100111000101111100100001100001001100110001111110111000000 2!
b000000000000000000000000000000000000000000000000000000000000000101 6!
19!
b011 K!
#540
09!
#545
b011 3
0F
0G
b0000110 H
b001 J
b0000000000000000000000000000000000000000000000000000000000000010 K
b0001111110010000011011101110101001110110010101101010100100001010 M
b00000011001010010101000111011100111001011011000110110010011001011000 m
b11111011000011111000000101111010111000011010111010100111000011001000 p
b000000000000000000000000000000000000000000000000000000000000010111 s
b000000000000000000000000000000000000000000000000000000000001011101 v
b000000000000000000000000000000000000000000000000000000000000010110 y
b000000000000000000000000000000000000000000000000000000000001011100 |
b000011 !!
b000100 "!
b11101110011010100011101000000111010010101110011111011101011101101000 /!
b00001100101001010100011101110011100101101100011011001001100101100000 2!
05!
b000000000000000000000000000000000000000000000000000000000000010111 6!
19!
b100 K!
#550
09!
#555
b100 3
b0000000000000000000000000000000000000000000000000000000000000010 Q
b0001111110010000011011101110101001110110010101101010100100001010 U
19!
1L!
#560
09!
#565
b0000000000000000000000000000000000000000000000000000000000000010 O
b0001111110010000011011101110101001110110010101101010100100001010 S
1[
19!
1B!
b0000000000000000000000000000000000000000000000000000000000000010 D!
b0001111110010000011011101110101001110110010101101010100100001010 F!
#570
09!
1C!
b000 K!
0L!
#575
b000 3
0[
19!
1<!
0B!
0J!
