sim/wave_cycles.vcd
$version Generated by VerilatedVcd $end
$date Fri May 29 15:17:07 2026
 $end
$timescale   1ps $end

 $scope module TOP $end
  $var wire  1 J! busy_o $end
  $var wire  1 9! clk $end
  $var wire  1 H! div_by_zero_o $end
  $var wire 64 =! dividend_i [63:0] $end
  $var wire 64 ?! divisor_i [63:0] $end
  $var wire  1 I! overflow_o $end
  $var wire 64 D! quotient_o [63:0] $end
  $var wire  1 C! ready_i $end
  $var wire  1 <! ready_o $end
  $var wire 64 F! remainder_o [63:0] $end
  $var wire  1 :! rst_n $end
  $var wire  1 A! signed_op_i $end
  $var wire  1 ;! valid_i $end
  $var wire  1 B! valid_o $end
  $scope module div_srt4_pkg $end
   $var wire 32 S! ITER_CNT_BITS [31:0] $end
   $var wire 32 P! LZC_BITS [31:0] $end
   $var wire  7 + M1_TABLE(0) [6:0] $end
   $var wire  7 , M1_TABLE(1) [6:0] $end
   $var wire  7 - M1_TABLE(2) [6:0] $end
   $var wire  7 . M1_TABLE(3) [6:0] $end
   $var wire  7 / M1_TABLE(4) [6:0] $end
   $var wire  7 0 M1_TABLE(5) [6:0] $end
   $var wire  7 1 M1_TABLE(6) [6:0] $end
   $var wire  7 2 M1_TABLE(7) [6:0] $end
   $var wire  7 # M2_TABLE(0) [6:0] $end
   $var wire  7 $ M2_TABLE(1) [6:0] $end
   $var wire  7 % M2_TABLE(2) [6:0] $end
   $var wire  7 & M2_TABLE(3) [6:0] $end
   $var wire  7 ' M2_TABLE(4) [6:0] $end
   $var wire  7 ( M2_TABLE(5) [6:0] $end
   $var wire  7 ) M2_TABLE(6) [6:0] $end
   $var wire  7 * M2_TABLE(7) [6:0] $end
   $var wire 32 R! MAX_ITER [31:0] $end
   $var wire 32 N! PR_WIDTH [31:0] $end
   $var wire 32 Q! QDS_DIV_BITS [31:0] $end
   $var wire 32 P! QDS_PR_BITS [31:0] $end
   $var wire 32 O! Q_WIDTH [31:0] $end
   $var wire 32 M! WIDTH [31:0] $end
  $upscope $end
  $scope module div_srt4_top $end
   $var wire 64 ; abs_dividend [63:0] $end
   $var wire 64 = abs_divisor [63:0] $end
   $var wire  1 J! busy_o $end
   $var wire  1 9! clk $end
   $var wire  3 I d_hat [2:0] $end
   $var wire  1 X div_by_zero_next $end
   $var wire  1 H! div_by_zero_o $end
   $var wire  1 W div_by_zero_q $end
   $var wire 64 =! dividend_i [63:0] $end
   $var wire 64 4 dividend_q [63:0] $end
   $var wire  1 9 dividend_sign $end
   $var wire 64 ?! divisor_i [63:0] $end
   $var wire 64 6 divisor_q [63:0] $end
   $var wire  1 : divisor_sign $end
   $var wire  1 G dp_done $end
   $var wire  1 F dp_iter_step $end
   $var wire  1 E dp_prep_step $end
   $var wire  1 B is_a_lt_d $end
   $var wire  1 A is_a_zero $end
   $var wire  1 C is_d_one $end
   $var wire  1 ? is_div_zero $end
   $var wire  1 @ is_overflow $end
   $var wire  1 Z overflow_next $end
   $var wire  1 I! overflow_o $end
   $var wire  1 Y overflow_q $end
   $var wire  7 H pr_est [6:0] $end
   $var wire  3 J q_digit [2:0] $end
   $var wire 64 K q_raw [63:0] $end
   $var wire 64 D! quotient_o [63:0] $end
   $var wire 64 Q quotient_o_next [63:0] $end
   $var wire 64 O quotient_o_q [63:0] $end
   $var wire 64 M r_raw [63:0] $end
   $var wire  1 C! ready_i $end
   $var wire  1 <! ready_o $end
   $var wire 64 F! remainder_o [63:0] $end
   $var wire 64 U remainder_o_next [63:0] $end
   $var wire 64 S remainder_o_q [63:0] $end
   $var wire  1 :! rst_n $end
   $var wire  1 D short_circuit $end
   $var wire  1 A! signed_op_i $end
   $var wire  1 8 signed_op_q $end
   $var wire  3 K! state_next [2:0] $end
   $var wire  3 3 state_q [2:0] $end
   $var wire  1 ;! valid_i $end
   $var wire  1 B! valid_o $end
   $var wire  1 L! valid_o_next $end
   $var wire  1 [ valid_o_q $end
   $scope module u_datapath $end
    $var wire 66 | QM_next [65:0] $end
    $var wire 66 y QM_q [65:0] $end
    $var wire 66 v Q_next [65:0] $end
    $var wire 66 s Q_q [65:0] $end
    $var wire 64 a a_norm_calc [63:0] $end
    $var wire 64 e abs_a_q [63:0] $end
    $var wire 64 g abs_d_q [63:0] $end
    $var wire 64 ; abs_dividend_i [63:0] $end
    $var wire 64 = abs_divisor_i [63:0] $end
    $var wire  1 9! clk $end
    $var wire  3 I d_hat_o [2:0] $end
    $var wire 68 )! d_neg_1x [67:0] $end
    $var wire 68 ,! d_neg_2x [67:0] $end
    $var wire 64 c d_norm_calc [63:0] $end
    $var wire 64 i d_norm_q [63:0] $end
    $var wire 68 #! d_pos_1x [67:0] $end
    $var wire 68 &! d_pos_2x [67:0] $end
    $var wire  1 G done_o $end
    $var wire  6 "! iter_cnt_next [5:0] $end
    $var wire  6 !! iter_cnt_q [5:0] $end
    $var wire  1 F iter_step $end
    $var wire  7 ^ k_calc [6:0] $end
    $var wire  7 \ lzc_a [6:0] $end
    $var wire  7 ] lzc_d [6:0] $end
    $var wire 68 /! mult [67:0] $end
    $var wire  7 _ n_calc [6:0] $end
    $var wire  7 k n_q [6:0] $end
    $var wire 68 2! pr_4x [67:0] $end
    $var wire  7 H pr_est_o [6:0] $end
    $var wire  1 5! pr_negative $end
    $var wire 68 p pr_next [67:0] $end
    $var wire 68 m pr_q [67:0] $end
    $var wire  1 E prep_step $end
    $var wire 66 6! q_corrected [65:0] $end
    $var wire  3 J q_digit_i [2:0] $end
    $var wire 64 K q_int [63:0] $end
    $var wire 64 K quotient_o [63:0] $end
    $var wire 64 M r_calc [63:0] $end
    $var wire 64 M remainder_o [63:0] $end
    $var wire  1 :! rst_n $end
    $var wire  7 ` shift_calc [6:0] $end
    $var wire  7 l shift_q [6:0] $end
   $upscope $end
   $scope module u_qds $end
    $var wire  3 I d_hat_i [2:0] $end
    $var wire  7 H pr_est_i [6:0] $end
    $var wire  3 J q_digit_o [2:0] $end
   $upscope $end
  $upscope $end
 $upscope $end
$enddefinitions $end


#0
b0001100 #
b0001110 $
b0010000 %
b0010000 &
b0010010 '
b0010100 (
b0010110 )
b0011000 *
b0000100 +
b0000100 ,
b0000100 -
b0000100 .
b0000110 /
b0000110 0
b0001000 1
b0001000 2
b000 3
b0000000000000000000000000000000000000000000000000000000000000000 4
b0000000000000000000000000000000000000000000000000000000000000000 6
08
09
0:
b0000000000000000000000000000000000000000000000000000000000000000 ;
b0000000000000000000000000000000000000000000000000000000000000000 =
1?
0@
1A
0B
0C
1D
0E
0F
0G
b0000000 H
b000 I
b000 J
b0000000000000000000000000000000000000000000000000000000000000000 K
b0000000000000000000000000000000000000000000000000000000000000000 M
b0000000000000000000000000000000000000000000000000000000000000000 O
b0000000000000000000000000000000000000000000000000000000000000000 Q
b0000000000000000000000000000000000000000000000000000000000000000 S
b0000000000000000000000000000000000000000000000000000000000000000 U
0W
0X
0Y
0Z
0[
b1000000 \
b1000000 ]
b0000000 ^
b0000010 _
b0000010 `
b0000000000000000000000000000000000000000000000000000000000000000 a
b0000000000000000000000000000000000000000000000000000000000000000 c
b0000000000000000000000000000000000000000000000000000000000000000 e
b0000000000000000000000000000000000000000000000000000000000000000 g
b0000000000000000000000000000000000000000000000000000000000000000 i
b0000000 k
b0000000 l
b00000000000000000000000000000000000000000000000000000000000000000000 m
b00000000000000000000000000000000000000000000000000000000000000000000 p
b000000000000000000000000000000000000000000000000000000000000000000 s
b000000000000000000000000000000000000000000000000000000000000000000 v
b000000000000000000000000000000000000000000000000000000000000000000 y
b000000000000000000000000000000000000000000000000000000000000000011 |
b000000 !!
b000001 "!
b00000000000000000000000000000000000000000000000000000000000000000000 #!
b00000000000000000000000000000000000000000000000000000000000000000000 &!
b00000000000000000000000000000000000000000000000000000000000000000000 )!
b00000000000000000000000000000000000000000000000000000000000000000000 ,!
b00000000000000000000000000000000000000000000000000000000000000000000 /!
b00000000000000000000000000000000000000000000000000000000000000000000 2!
05!
b000000000000000000000000000000000000000000000000000000000000000000 6!
09!
0:!
0;!
1<!
b0000000000000000000000000000000000000000000000000000000000000000 =!
b0000000000000000000000000000000000000000000000000000000000000000 ?!
0A!
0B!
0C!
b0000000000000000000000000000000000000000000000000000000000000000 D!
b0000000000000000000000000000000000000000000000000000000000000000 F!
0H!
0I!
0J!
b000 K!
0L!
b00000000000000000000000001000000 M!
b00000000000000000000000001000100 N!
b00000000000000000000000001000010 O!
b00000000000000000000000000000111 P!
b00000000000000000000000000000011 Q!
b00000000000000000000000000100010 R!
b00000000000000000000000000000110 S!
#5
19!
#10
09!
#15
19!
#20
09!
#25
19!
#30
09!
#35
19!
#40
09!
#45
19!
#50
09!
1:!
1;!
b0000000000000000000000000000000000000000000000000000000001100001 =!
b0000000000000000000000000000000000000000000000000000000000001010 ?!
1A!
b001 K!
#55
b001 3
b0000000000000000000000000000000000000000000000000000000001100001 4
b0000000000000000000000000000000000000000000000000000000000001010 6
18
b0000000000000000000000000000000000000000000000000000000001100001 ;
b0000000000000000000000000000000000000000000000000000000000001010 =
0?
0A
0D
1E
b0111001 \
b0111100 ]
b0000011 ^
b0000100 _
b0000011 `
b1100001000000000000000000000000000000000000000000000000000000000 a
b1010000000000000000000000000000000000000000000000000000000000000 c
19!
0<!
1J!
b010 K!
#60
09!
0;!
#65
b010 3
0E
1F
b0001100 H
b010 I
b001 J
b0000000000000000000000000000000000000000000000000000000001100001 M
b0000000000000000000000000000000000000000000000000000000001100001 e
b0000000000000000000000000000000000000000000000000000000000001010 g
b1010000000000000000000000000000000000000000000000000000000000000 i
b0000100 k
b0000011 l
b00000110000100000000000000000000000000000000000000000000000000000000 m
b00000100010000000000000000000000000000000000000000000000000000000000 p
b000000000000000000000000000000000000000000000000000000000000000001 v
b000000000000000000000000000000000000000000000000000000000000000000 |
b00010100000000000000000000000000000000000000000000000000000000000000 #!
b00101000000000000000000000000000000000000000000000000000000000000000 &!
b11101100000000000000000000000000000000000000000000000000000000000000 )!
b11011000000000000000000000000000000000000000000000000000000000000000 ,!
b11101100000000000000000000000000000000000000000000000000000000000000 /!
b00011000010000000000000000000000000000000000000000000000000000000000 2!
19!
#70
09!
#75
b0001000 H
b00000100010000000000000000000000000000000000000000000000000000000000 m
b11111101000000000000000000000000000000000000000000000000000000000000 p
b000000000000000000000000000000000000000000000000000000000000000001 s
b000000000000000000000000000000000000000000000000000000000000000101 v
b000000000000000000000000000000000000000000000000000000000000000100 |
b000001 !!
b000010 "!
b00010001000000000000000000000000000000000000000000000000000000000000 2!
b000000000000000000000000000000000000000000000000000000000000000001 6!
19!
#80
09!
#85
b1111010 H
b100 J
b11111101000000000000000000000000000000000000000000000000000000000000 m
b00001000000000000000000000000000000000000000000000000000000000000000 p
b000000000000000000000000000000000000000000000000000000000000000101 s
b000000000000000000000000000000000000000000000000000000000000010011 v
b000000000000000000000000000000000000000000000000000000000000000100 y
b000000000000000000000000000000000000000000000000000000000000010010 |
b000010 !!
b000011 "!
b00010100000000000000000000000000000000000000000000000000000000000000 /!
b11110100000000000000000000000000000000000000000000000000000000000000 2!
15!
b000000000000000000000000000000000000000000000000000000000000000100 6!
19!
#90
09!
#95
1G
b0010000 H
b010 J
b0000000000000000000000000000000000000000000000000000000000000010 K
b0000000000000000000000000000000000000000000000000000000001001101 M
b00001000000000000000000000000000000000000000000000000000000000000000 m
b11111000000000000000000000000000000000000000000000000000000000000000 p
b000000000000000000000000000000000000000000000000000000000000010011 s
b000000000000000000000000000000000000000000000000000000000001001110 v
b000000000000000000000000000000000000000000000000000000000000010010 y
b000000000000000000000000000000000000000000000000000000000001001101 |
b000011 !!
b000100 "!
b11011000000000000000000000000000000000000000000000000000000000000000 /!
b00100000000000000000000000000000000000000000000000000000000000000000 2!
05!
b000000000000000000000000000000000000000000000000000000000000010011 6!
19!
b011 K!
#100
09!
#105
b011 3
0F
0G
b1110000 H
b100 J
b0000000000000000000000000000000000000000000000000000000000001001 K
b0000000000000000000000000000000000000000000000000000000000000111 M
b11111000000000000000000000000000000000000000000000000000000000000000 m
b11110100000000000000000000000000000000000000000000000000000000000000 p
b000000000000000000000000000000000000000000000000000000000001001110 s
b000000000000000000000000000000000000000000000000000000000100110111 v
b000000000000000000000000000000000000000000000000000000000001001101 y
b000000000000000000000000000000000000000000000000000000000100110110 |
b000100 !!
b000101 "!
b00010100000000000000000000000000000000000000000000000000000000000000 /!
b11100000000000000000000000000000000000000000000000000000000000000000 2!
15!
b000000000000000000000000000000000000000000000000000000000001001101 6!
19!
b100 K!
#110
09!
#115
b100 3
b0000000000000000000000000000000000000000000000000000000000001001 Q
b0000000000000000000000000000000000000000000000000000000000000111 U
19!
1L!
#120
09!
#125
b0000000000000000000000000000000000000000000000000000000000001001 O
b0000000000000000000000000000000000000000000000000000000000000111 S
1[
19!
1B!
b0000000000000000000000000000000000000000000000000000000000001001 D!
b0000000000000000000000000000000000000000000000000000000000000111 F!
#130
09!
1C!
b000 K!
0L!
#135
b000 3
0[
19!
1<!
0B!
0J!
